## Interface: 80000
## Title: Keys
## Version: 0.1alpha
## Notes: Keystone Manager
## Author: appleju1ce
## DefaultState: enabled
## SavedVariables: KeysDB
## OptionalDeps: Ace3


embeds.xml

Keys.lua
